1 10 20
100 200 125
201 210 89
900 1000 174
542587 123586 470
42658 999999 525
95422 853215 525
458964 522545 470
234599 999999 525
104 52 119
243 412 144
929 674 179
874 374 179
7606 3169 262
627 1419 182
843 423 171
729 75 171
89568 6971 351
210 232 128
1259 2792 209
284 739 171
907 391 179
350 75 144
330 593 142
620 281 144
625 563 132
305 688 145
359 666 145
7071 3530 262
563 317 144
7886 1237 262
1518 355 182
6166 2158 238
153 796 171
5529 1747 238
502 179 144
795 433 171
755 482 171
193 659 145
8446 8888 216
504 826 171
3337 343 217
44 905 179
591 901 179
9423 601 262
557 806 171
239 756 171
81 776 171
5161 2928 238
847 267 171
418 153 144
63035 38272 340
8413 8539 203
72 256 128
151 90 122
7843 3913 262
79472 87552 333
586 939 179
989 260 179
59 426 144
613 910 179
161 866 171
336 441 134
8732 4383 262
978 773 179
675 243 145
916 133 179
155 744 171
573 588 119
8 856 171
354 291 144
61134 44618 340
16391 10105 276
641 179 144
340 379 126
8551 3368 262
998 7590 262
613 722 171
829 431 171
392 838 171
270 3914 238
8857 7288 252
901 551 179
741 369 171
797 1429 182
404 2582 209
461 129 144
889 141 179
783 563 171
870 752 153
392 6957 262
131 919 179
674 292 145
968 139 179
423 246 144
319 176 131
6538 5305 262
1371 5466 238
2956 4665 238
663 209 145
7976 1731 262
813 94 171
876 606 179
65883 40621 340
101 852 171
355 602 142
249 177 128
5503 8332 262
744 840 153
271 839 171
530 2688 209
20842 81736 351
3053 9889 262
854 447 171
55498 51588 340
940 618 179
5885 2057 238
611 237 144
5726 251 238
912 481 179
671 515 145
165 503 144
390 259 144
13 934 179
851 425 171
622 279 144
609 595 132
147 432 144
904 1296 182
32 976 179
473 652 145
472 99 144
12 864 171
74014 719 340
26506 14443 282
706 753 140
936 645 179
625 1 144
862 648 171
155 948 179
9272 8233 260
121 930 179
862 644 171
207 448 144
2442 3008 217
3305 1406 217
967 559 179
59 101 119
3015 5614 238
531 212 144
183 507 144
16 98 119
243 17 128
448 770 171
9842 2931 262
3166 1560 217
2093 7528 262
28 342 144
213 207 89
